"pID","pName","pSection","pImage","pImage2","pImage3","pImage4","pImage5","pLargeImage","pLargeImage2","pLargeImage3","pLargeImage4","pLargeImage5","pGiantImage","pGiantImage2","pGiantImage3","pGiantImage4","pGiantImage5","pPrice","pWholesalePrice","pListPrice","pShipping","pShipping2","pWeight","pDisplay","pSell","pExemptions","pInStock","pDims","pTax","pDropship","pStaticPage","pStockByOpts","pRecommend","pOrder","pSKU","pManufacturer","pDescription","pLongDescription"
"TB-L","Smoked Beef Brisket, 4 lb.","9","prodimages/TB-Lsm.jpg","","","","","prodimages/TB-Llg.jpg","","","","","","","","","","49.5","0","0","0","0","5","1","1","0","0","","","0","0","0","0","0","","0","Mesquite-smoked Beef Brisket, tasty and juicy!
CALL FOR SPECIAL SHIPPING CHARGES.","Mesquite-smoked Beef Brisket, tasty and juicy!
CALL FOR SPECIAL SHIPPING CHARGES."
"TB-M","Mesquite-Smoked Hot Pepper Cheese, 1 lb.","10","prodimages/TB-Msm.jpg","","","","","prodimages/TB-Mlg.jpg","","","","","","","","","","8","0","0","0","0","1","1","1","0","0","","","0","0","0","0","10","","0","These savory cheeses really compliment our jerkies and other smoked meats.","These savory cheeses really compliment our jerkies and other smoked meats."
"TB-N","Mesquite-Smoked Longhorn Cheddar Cheese","10","prodimages/TB-Nsm.jpg","","","","","prodimages/TB-Nlg.jpg","","","","","","","","","","8","0","0","0","0","1","1","1","0","0","","","0","0","0","0","20","","0","These savory cheeses really compliment our jerkies and other smoked meats.","These savory cheeses really compliment our jerkies and other smoked meats."
"TB-E1","EXTRA HOT Beef Jerky, 4 oz.","7","prodimages/IMG_2766TN.jpg","","","","","prodimages/IMG_2766LG.jpg","","","","","","","","","","8","0","0","0","0","0.25","1","1","0","0","","","0","0","0","0","100","","0","<img src=""vsadmin/adminimages/hot.gif"" border=""0""> Lean cuts of tender beef, thickly cut marinaded in our special EXTRA hot sauce and smoked for 8 hours in our specially designed smokers. Fresh and tasty, guaranteed!","<img src=""vsadmin/adminimages/hot.gif"" border=""0""> Lean cuts of tender beef, thickly cut marinaded in our special EXTRA hot sauce and smoked for 8 hours in our specially designed smokers. Fresh and tasty, guaranteed!"
"TB-I","Beef Sausage Sticks, .06 lb.","8","prodimages/TB-Ism.jpg","","","","","prodimages/TB-Ilg.jpg","","","","","","","","","","1.5","0","0","0","0","0.6","1","1","0","0","","","0","0","0","0","1","","0","Juicy sausage sticks smoked in our specially designed smokers. Delicious!","Juicy sausage sticks smoked in our specially designed smokers. Delicious!"
"TB-J","Beef Sausage Sticks, .42 lb.","8","prodimages/TB-Jsm.jpg","","","","","prodimages/TB-Jlg.jpg","","","","","","","","","","8","0","0","0","0","0.42","1","1","0","0","","","0","0","0","0","2","","0","Juicy sausage sticks (seven of them!) smoked in our specially designed smokers. Delicious!","Juicy sausage sticks (seven of them!) smoked in our specially designed smokers. Delicious!"
"TB-K","Beef Summer Sausage","8","prodimages/TB-K1sm.jpg","","","","","prodimages/TB-K1.jpg","","","","","","","","","","8","0","0","0","0","1","1","1","0","0","","","0","0","0","0","0","","0","You can't beat Texas Best Summer Sausage for snacking!","You can't beat Texas Best Summer Sausage for snacking!"
"TB-K2","Beef Summer Sausage w/Hot Pepper Cheese","8","prodimages/TB-Ksm.jpg","","","","","prodimages/TB-Klg.jpg","","","","","","","","","","8","0","0","0","0","1","1","1","0","0","","","0","0","0","0","4","","0","Beef Summer Sausage. You can't beat Texas Best Summer Sausage for snacking!","Beef Summer Sausage. You can't beat Texas Best Summer Sausage for snacking!"
"TB-A2","Mild Beef Jerky, 1 lb.","7","prodimages/TB-A2sm.jpg","","","","","prodimages/TB-A2lg.jpg","","","","","","","","","","32","0","0","0","0","1","1","1","0","0","","","0","0","0","0","20","","0","Lean cuts of tender beef marinaded in our special mild sauce and smoked for 8 hours in our specially designed smokers. Fresh and tasty, guaranteed!","Lean cuts of tender beef marinaded in our special mild sauce and smoked for 8 hours in our specially designed smokers. Fresh and tasty, guaranteed!"
"TB-B1","Mild Beef Jerky, thick cut, 4 oz.","7","prodimages/TB-B1sm.jpg","","","","","prodimages/TB-B1lg.jpg","","","","","","","","","","8","0","0","0","0","0.25","1","1","0","0","","","0","0","0","0","30","","0","Lean cuts of tender beef, thickly cut, marinaded in our special mild sauce and smoked for 8 hours in our specially designed smokers. Fresh and tasty, guaranteed!","Lean cuts of tender beef, thickly cut, marinaded in our special mild sauce and smoked for 8 hours in our specially designed smokers. Fresh and tasty, guaranteed!"
"TB-B2","Mild Beef Jerky, thick cut, 1 lb.","7","prodimages/TB-B2sm.jpg","","","","","prodimages/TB-B2lg.jpg","","","","","","","","","","32","0","0","0","0","1","1","1","0","0","","","0","0","0","0","40","","0","Lean cuts of tender beef, thickly cut, marinaded in our special mild sauce and smoked for 8 hours in our specially designed smokers. Fresh and tasty, guaranteed!","Lean cuts of tender beef, thickly cut, marinaded in our special mild sauce and smoked for 8 hours in our specially designed smokers. Fresh and tasty, guaranteed!"
"TB-B3","Mild Teriyaki Beef Jerky 4 oz.","7","prodimages/IMG_2768TN.jpg","","","","","prodimages/IMG_2768LG.jpg","","","","","","","","","","8","0","0","0","0","0.25","1","1","0","0","","","0","0","0","0","50","","0","Lean cuts of tender beef marinated in our special mild teriyaki sauce and smoked for 8 hours in our specially designed smokers. Fresh and tasty, guaranteed!","Lean cuts of tender beef marinated in our special mild teriyaki sauce and smoked for 8 hours in our specially designed smokers. Fresh and tasty, guaranteed!"
"TB-B4","Mild Teriyaki Beef Jerky 1 lb.","7","prodimages/TB-B4sm.jpg","","","","","prodimages/TB-B4lg.jpg","","","","","","","","","","32","0","0","0","0","1","1","1","0","0","","","0","0","0","0","55","","0","Lean cuts of tender beef marinated in our special mild teriyaki sauce and smoked for 8 hours in our specially designed smokers. Fresh and tasty, guaranteed!","Lean cuts of tender beef marinated in our special mild teriyaki sauce and smoked for 8 hours in our specially designed smokers. Fresh and tasty, guaranteed!"
"TB-C1","HOT Beef Jerky, 4 oz.","7","prodimages/TB-C1sm.jpg","","","","","prodimages/TB-C1lg.jpg","","","","","","","","","","8","0","0","0","0","0.25","1","1","0","0","","","0","0","0","0","60","","0","<img src=""vsadmin/adminimages/hot.gif"" border=""0""> Lean cuts of tender beef marinaded in our special hot sauce and smoked for 8 hours in our specially designed smokers. Fresh and tasty, guaranteed!","<img src=""vsadmin/adminimages/hot.gif"" border=""0""> Lean cuts of tender beef marinaded in our special hot sauce and smoked for 8 hours in our specially designed smokers. Fresh and tasty, guaranteed!"
"TB-C2","HOT Beef Jerky, 1 lb.","7","prodimages/TB-C1sm.jpg","","","","","prodimages/TB-C1lg.jpg","","","","","","","","","","32","0","0","0","0","1","1","1","0","0","","","0","0","0","0","70","","0","<img src=""vsadmin/adminimages/hot.gif"" border=""0""> Lean cuts of tender beef marinaded in our special hot sauce and smoked for 8 hours in our specially designed smokers. Fresh and tasty, guaranteed!","<img src=""vsadmin/adminimages/hot.gif"" border=""0""> Lean cuts of tender beef marinaded in our special hot sauce and smoked for 8 hours in our specially designed smokers. Fresh and tasty, guaranteed!"
"TB-D1","HOT Beef Jerky, thick cut, 4 oz.","7","prodimages/TB-C1sm.jpg","","","","","prodimages/TB-C1lg.jpg","","","","","","","","","","8","0","0","0","0","0.25","1","1","0","0","","","0","0","0","0","80","","0","<img src=""vsadmin/adminimages/hot.gif"" border=""0""> Lean cuts of tender beef, thickly cut, marinaded in our special hot sauce and smoked for 8 hours in our specially designed smokers. Fresh and tasty, guaranteed!","<img src=""vsadmin/adminimages/hot.gif"" border=""0""> Lean cuts of tender beef, thickly cut, marinaded in our special hot sauce and smoked for 8 hours in our specially designed smokers. Fresh and tasty, guaranteed!"
"TB-D2","HOT Beef Jerky, thick cut, 1 lb.","7","prodimages/TB-C1sm.jpg","","","","","prodimages/TB-C1lg.jpg","","","","","","","","","","32","0","0","0","0","1","1","1","0","0","","","0","0","0","0","90","","0","<img src=""vsadmin/adminimages/hot.gif"" border=""0""> Lean cuts of tender beef, thickly cut marinaded in our special hot sauce and smoked for 8 hours in our specially designed smokers. Fresh and tasty, guaranteed!","<img src=""vsadmin/adminimages/hot.gif"" border=""0""> Lean cuts of tender beef, thickly cut marinaded in our special hot sauce and smoked for 8 hours in our specially designed smokers. Fresh and tasty, guaranteed!"
"TB-A1","Mild Beef Jerky, 4 oz.","7","prodimages/TB-A2sm.jpg","","","","","prodimages/TB-A1lg.jpg","","","","","","","","","","8","0","0","0","0","0.25","1","1","0","0","","","0","0","0","0","10","","0","Lean cuts of tender beef marinaded in our special mild sauce and smoked for 8 hours in our specially designed smokers. Fresh and tasty, guaranteed!","Lean cuts of tender beef marinaded in our special mild sauce and smoked for 8 hours in our specially designed smokers. Fresh and tasty, guaranteed!"
"TB-E2","EXTRA HOT Beef Jerky, 1 lb.","7","prodimages/IMG_2766TN.jpg","","","","","prodimages/IMG_2766LG.jpg","","","","","","","","","","32","0","0","0","0","1","1","1","0","0","","","0","0","0","0","110","","0","<img src=""vsadmin/adminimages/hot.gif"" border=""0""> Lean cuts of tender beef, thickly cut marinaded in our special EXTRA hot sauce and smoked for 8 hours in our specially designed smokers. Fresh and tasty, guaranteed!","<img src=""vsadmin/adminimages/hot.gif"" border=""0""> Lean cuts of tender beef, thickly cut marinaded in our special EXTRA hot sauce and smoked for 8 hours in our specially designed smokers. Fresh and tasty, guaranteed!"
"TB-F1","Mild Turkey Jerky, 4 oz.","7","prodimages/IMG_2769TN.jpg","","","","","prodimages/IMG_2769LG.jpg","","","","","","","","","","8","0","0","0","0","0.25","1","1","0","0","","","0","0","0","0","120","","0","Premium turkey breast meat marinaded in our special mild sauce and smoked for 8 hours in our specially designed smokers. Fresh and tasty, guaranteed!","Premium turkey breast meat marinaded in our special mild sauce and smoked for 8 hours in our specially designed smokers. Fresh and tasty, guaranteed!"
"TB-F2","Mild Turkey Jerky, 1 lb.","7","prodimages/IMG_2769TN.jpg","","","","","prodimages/IMG_2769LG.jpg","","","","","","","","","","32","0","0","0","0","1","1","1","0","0","","","0","0","0","0","130","","0","Premium turkey breast meat marinaded in our special mild sauce and smoked for 8 hours in our specially designed smokers. Fresh and tasty, guaranteed!","Premium turkey breast meat marinaded in our special mild sauce and smoked for 8 hours in our specially designed smokers. Fresh and tasty, guaranteed!"
"TB-S1","BBQ Rub","14","prodimages/TB-S1_BBQ_RubTN.jpg","","","","","prodimages/TB-S1_BBQ_RubTN.jpg","","","","","","","","","","8","0","0","0","0","0.874999","1","1","0","0","","","0","0","0","0","0","","0","BBQ Rub","BBQ Rub"
"TB-GB1","#1 Gift Box","9","prodimages/sTN1_IMG_0311.jpg","","","","","prodimages/tb_basket1.jpg","","","","","","","","","","69.95","0","0","0","0","15","1","1","0","0","","","0","0","0","0","30","","0","3-4 lb. Mesquite Smoked Brisket, Smoked Hot Pepper Cheese, Smoked Longhorn Cheddar, BBQ Sauce Original, Summer Sausage Plain.","3-4 lb. Mesquite Smoked Brisket, Smoked Hot Pepper Cheese, Smoked Longhorn Cheddar, BBQ Sauce Original, Summer Sausage Plain."
"FM","Filet Mignons","13","prodimages/sp1sm.jpg","","","","","prodimages/sp1lg.jpg","","","","","","","","","","0","0","0","0","0","0","1","1","0","0","","","0","0","0","0","10","","0","The tenderness and flavor of our Filet Mignon is second to none! Cut from the heart of the finest, grain-fed beef tenderloin. Naturally aged for juicy flavor, then vacuum-wrapped and flash frozen to lock that great flavor","The tenderness and flavor of our Filet Mignon is second to none! Cut from the heart of the finest, grain-fed beef tenderloin. Naturally aged for juicy flavor, then vacuum-wrapped and flash frozen to lock that great flavor"
"BR-FM","Bacon-wrapped Filet Mignons","13","prodimages/sp2sm.jpg","","","","","prodimages/sp2lg.jpg","","","","","","","","","","0","0","0","0","0","0","1","1","0","0","","","0","0","0","0","20","","0","The tenderness and flavor of our bacon-wrapped Filet Mignon is second to none! Cut from the heart of the finest, grain-fed beef tenderloin and wrapped with a savory strip of smokey bacon. Naturally aged for juicy flavor, vacuum-wrapped and flash frozen to lock that great flavor then packed in dry ice and shipped directly to you in our special container.","The tenderness and flavor of our bacon-wrapped Filet Mignon is second to none! Cut from the heart of the finest, grain-fed beef tenderloin and wrapped with a savory strip of smokey bacon. Naturally aged for juicy flavor, vacuum-wrapped and flash frozen to lock that great flavor then packed in dry ice and shipped directly to you in our special container."
"BSS","Boneless Strip Steaks","13","prodimages/sp3sm.jpg","","","","","prodimages/sp3lg.jpg","","","","","","","","","","0","0","0","0","0","0.05","1","1","0","0","","","0","0","0","0","0","","0","One of our most popular steaks. Well-marbled and tender boneless steaks cut from the heart of the loin, these steaks are sure to be the perfect centerpiece at your next cookout! Naturally aged for juicy flavor, vacuum-wrapped and flash frozen to lock that great flavor then packed in dry ice and shipped directly to you in our special container.","One of our most popular steaks. Well-marbled and tender boneless steaks cut from the heart of the loin, these steaks are sure to be the perfect centerpiece at your next cookout! Naturally aged for juicy flavor, vacuum-wrapped and flash frozen to lock that great flavor then packed in dry ice and shipped directly to you in our special container."
"RS","RibEye Steaks","13","prodimages/sp4sm.jpg","","","","","prodimages/sp4lg.jpg","","","","","","","","","","0","0","0","0","0","0","1","1","0","0","","","0","0","0","0","40","","0","All the Prime Rib flavor you hunger for, but without the bone! Cut from the ""eye"" of Prime Rib Roast, our RibEyes are incredibly tender and juicy. Naturally aged for flavor, vacuum-wrapped and flash frozen to lock that great flavor then packed in dry ice and shipped directly to you in our special container. ","All the Prime Rib flavor you hunger for, but without the bone! Cut from the ""eye"" of Prime Rib Roast, our RibEyes are incredibly tender and juicy. Naturally aged for flavor, vacuum-wrapped and flash frozen to lock that great flavor then packed in dry ice and shipped directly to you in our special container. "
"TS","Top Sirloins","13","prodimages/sp5sm.jpg","","","","","prodimages/sp5lg.jpg","","","","","","","","","","0","0","0","0","0","0","1","1","0","0","","","0","0","0","0","50","","0","Texas Best Top Sirloins have a flavor that you can't find anywhere else. Lean, juicy, firm and full of flavor, these hearty steaks are a true BBQ classic. Naturally aged for juicy flavor, vacuum-wrapped and flash frozen to lock that great flavor then packed in dry ice and shipped directly to you in our special container. ","Texas Best Top Sirloins have a flavor that you can't find anywhere else. Lean, juicy, firm and full of flavor, these hearty steaks are a true BBQ classic. Naturally aged for juicy flavor, vacuum-wrapped and flash frozen to lock that great flavor then packed in dry ice and shipped directly to you in our special container. "
"TBS","T-Bone Steaks","13","prodimages/sp6sm.jpg","","","","","prodimages/sp6lg.jpg","","","","","","","","","","0","0","0","0","0","0","1","1","0","0","","","0","0","0","0","60","","0","This is a serious grilling steak for serious steak fans! Each steak includes a whole Strip Sirloin, plus a tender slice of juicy Filet Mignon, all in one gorgeous bone-in steak. Naturally aged for flavor, vacuum-wrapped and flash frozen to lock that great flavor then packed in dry ice and shipped directly to you in our special container. ","This is a serious grilling steak for serious steak fans! Each steak includes a whole Strip Sirloin, plus a tender slice of juicy Filet Mignon, all in one gorgeous bone-in steak. Naturally aged for flavor, vacuum-wrapped and flash frozen to lock that great flavor then packed in dry ice and shipped directly to you in our special container. "
"PS","Porterhouse Steaks","13","prodimages/sp7sm.jpg","","","","","prodimages/sp7lg.jpg","","","","","","","","","","0","0","0","0","0","0","1","1","0","0","","","0","0","0","0","70","","0","For those with a Texas-Size appetite, our 20 oz. Porterhouse Steaks are sure to fill the bill! Actually two steaks in one, a large tender filet steak and a whole New York Strip. Naturally aged for juicy flavor, vacuum-wrapped and flash frozen to lock that great flavor then packed in dry ice and shipped directly to you in our special container. ","For those with a Texas-Size appetite, our 20 oz. Porterhouse Steaks are sure to fill the bill! Actually two steaks in one, a large tender filet steak and a whole New York Strip. Naturally aged for juicy flavor, vacuum-wrapped and flash frozen to lock that great flavor then packed in dry ice and shipped directly to you in our special container. "
"TBB","Texas Best Burgers","13","prodimages/sp8sm.jpg","","","","","prodimages/sp8lg.jpg","","","","","","","","","","0","0","0","0","0","0","1","1","0","0","","","0","0","0","0","80","","0","Texas Best Burgers are sure to be the hit of your next cookout! All burgers pre-formed, and individually wrapped. Naturally aged for juicy flavor, vacuum-wrapped and flash frozen to lock that great flavor then packed in dry ice and shipped directly to you in our special container. ","Texas Best Burgers are sure to be the hit of your next cookout! All burgers pre-formed, and individually wrapped. Naturally aged for juicy flavor, vacuum-wrapped and flash frozen to lock that great flavor then packed in dry ice and shipped directly to you in our special container. "
"TB-R","Texas Best Mild Jerky Marinade, 12 oz.","11","prodimages/TB-Rsm.jpg","","","","","prodimages/TB-Rlg.jpg","","","","","","","","","","7","0","0","0","0","0.75","1","1","0","0","","","0","0","0","0","30","","0","Make your own flavorful meats and jerky at home with authentic Texas Best marinade!","Make your own flavorful meats and jerky at home with authentic Texas Best marinade!"
"TB-S","Texas Best Hot Jerky Marinade, 12 oz.","11","prodimages/TB-Ssm.jpg","","","","","prodimages/TB-Slg.jpg","","","","","","","","","","7","0","0","0","0","0.75","1","1","0","0","","","0","0","0","0","40","","0","<img src=""vsadmin/adminimages/hot.gif"" border=""0""> Make your own flavorful meats and jerky at home with authentic Texas Best marinade!","<img src=""vsadmin/adminimages/hot.gif"" border=""0""> Make your own flavorful meats and jerky at home with authentic Texas Best marinade!"
"TB-T","Texas Best Mild Jerky Marinade, 1 gal.","11","prodimages/TB-Tsm.jpg","","","","","prodimages/TB-Tlg.jpg","","","","","","","","","","28","0","0","0","0","11","1","1","0","0","","","0","0","0","0","50","","0","Make your own flavorful meats and jerky at home with authentic Texas Best marinade!","Make your own flavorful meats and jerky at home with authentic Texas Best marinade!"
"TB-U","Texas Best Hot Jerky Marinade, 1 gal.","11","prodimages/TB-Usm.jpg","","","","","prodimages/TB-Ulg.jpg","","","","","","","","","","28","0","0","0","0","11","1","1","0","0","","","0","0","0","0","60","","0","<img src=""vsadmin/adminimages/hot.gif"" border=""0""> Make your own flavorful meats and jerky at home with authentic Texas Best marinade!","<img src=""vsadmin/adminimages/hot.gif"" border=""0""> Make your own flavorful meats and jerky at home with authentic Texas Best marinade!"
"TB-V","Troy's Mildly Wild BBQ Sauce","11","prodimages/TB-Vsm.jpg","","","","","prodimages/TB-Vlg.jpg","","","","","","","","","","6","0","0","0","0","2","1","1","0","0","","","0","0","0","0","70","","0","Tangy BBQ sauce for your next cookout.","Tangy BBQ sauce for your next cookout."
"TB-W","Troy's Hot Wild BBQ Sauce","11","prodimages/TB-Wsm.jpg","","","","","prodimages/TB-Wlg.jpg","","","","","","","","","","6","0","0","0","0","2","1","1","0","0","","","0","0","0","0","80","","0","<img src=""vsadmin/adminimages/hot.gif"" border=""0""> Hot and Tangy BBQ sauce for your next cookout.","<img src=""vsadmin/adminimages/hot.gif"" border=""0""> Hot and Tangy BBQ sauce for your next cookout."
"TB-S2","Cajun Seasoning","14","prodimages/TB-S2_CajunTN.jpg","","","","","prodimages/TB-S2_Cajun.jpg","","","","","","","","","","8","0","0","0","0","0.999999","1","1","0","0","","","0","0","0","0","0","","0","Cajun Seasoning","Cajun Seasoning"
"TB-S3","Steak Seasoning","14","prodimages/TB-S3_SteakSeasoningTN.jpg","","","","","prodimages/TB-S3_SteakSeasoning.jpg","","","","","","","","","","8","0","0","0","0","1","1","1","0","0","","","0","0","0","0","0","","0","Steak Seasoning","Steak Seasoning"
"TB-S4","All Purpose Seasoning","14","prodimages/TB-S4_AllPurposeTN.jpg","","","","","prodimages/TB-S4_AllPurpose.jpg","","","","","","","","","","8","0","0","0","0","1","1","1","0","0","","","0","0","0","0","0","","0","All Purpose Seasoning","All Purpose Seasoning"
"TB-S5","Mesquite Fajita Seasoning","14","prodimages/TB-S5_FajitaSeasoningTN.jpg","","","","","prodimages/TB-S5_FajitaSeasoning.jpg","","","","","","","","","","8","0","0","0","0","1","1","1","0","0","","","0","0","0","0","0","","0","Mesquite Fajita Seasoning","Mesquite Fajita Seasoning"
"TB-S6","Chili Blend","14","prodimages/TB-S6_ChiliBlendTN.jpg","","","","","prodimages/TB-S6_ChiliBlend.jpg","","","","","","","","","","8","0","0","0","0","1","1","1","0","0","","","0","0","0","0","0","","0","Chili Blend","Chili Blend"
"T-RCS","Texas Best Raspberry Chipolte Salsa, 16 oz.","11","prodimages/TB-RCSTN.jpg","","","","","prodimages/TB-RCS.jpg","","","","","","","","","","6","0","0","0","0","1","1","1","0","0","","","0","0","0","0","0","","0","Texas Best Raspberry Chipolte Salsa, 16 oz.","Texas Best Raspberry Chipolte Salsa, 16 oz."
"TB-HHS","Texas Best Hot Habanero Salsa, 16 oz.","11","prodimages/TB-HHSTN.jpg","","","","","prodimages/TB-HHS.jpg","","","","","","","","","","6","0","0","0","0","1","1","1","0","0","","","0","0","0","0","0","","0","<img src=""vsadmin/adminimages/hot.gif"" border=""0""> Texas Best Hot Habanero Salsa, 16 oz.","<img src=""vsadmin/adminimages/hot.gif"" border=""0""> Texas Best Hot Habanero Salsa, 16 oz."
"TB-MPS","Texas Best Medium Picante Salsa, 16 oz.","11","prodimages/TB-MPSTN.jpg","","","","","prodimages/TB-MPS.jpg","","","","","","","","","","6","0","0","0","0","1","1","1","0","0","","","0","0","0","0","0","","0","Texas Best Medium Picante Salsa, 16 oz.","Texas Best Medium Picante Salsa, 16 oz."
